<?xml version="1.0" encoding="UTF-8" standalone="no"?>
<svg xmlns:rdf="http://www.w3.org/1999/02/22-rdf-syntax-ns#" xmlns="http://www.w3.org/2000/svg" xmlns:osb="http://www.openswatchbook.org/uri/2009/osb" viewBox="0 0 45 45.000001" height="48" width="48" version="1.1" xmlns:cc="http://creativecommons.org/ns#" xmlns:xlink="http://www.w3.org/1999/xlink" xmlns:dc="http://purl.org/dc/elements/1.1/">
 <metadata>
  <rdf:RDF>
   <cc:Work rdf:about="">
    <dc:format>image/svg+xml</dc:format>
    <dc:type rdf:resource="http://purl.org/dc/dcmitype/StillImage"/>
    <dc:title/>
   </cc:Work>
  </rdf:RDF>
 </metadata>
 <defs>
  <style id="bx-google-fonts">@import url(https://fonts.googleapis.com/css?family=Open+Sans:300,300italic,400,400italic,600,600italic,700,700italic,800,800italic);</style>
  <clipPath id="clipPath5625-3" clipPathUnits="userSpaceOnUse">
   <path stroke-linejoin="round" d="m219.98 1173.8 158.75-158.9c79.375 79.459 79.375 238.38 0 317.84z" stroke="#000" stroke-linecap="round" stroke-width="15.883px" fill="none"/>
  </clipPath>
  <filter id="filter4753-6" style="color-interpolation-filters:sRGB">
   <feColorMatrix values="0.21 0.72 0.072 0 0 0.21 0.72 0.072 0 0 0.21 0.72 0.072 0 0 0 0 0 1 0 " result="fbSourceGraphic"/>
   <feColorMatrix values="0 0 0 -1 0 0 0 0 -1 0 0 0 0 -1 0 0 0 0 1 0" result="fbSourceGraphicAlpha" in="fbSourceGraphic"/>
   <feColorMatrix values="0.21 0.72 0.072 0 0 0.21 0.72 0.072 0 0 0.21 0.72 0.072 0 0 0 0 0 1 0 " in="fbSourceGraphic"/>
  </filter>
  <style>@import url(https://fonts.googleapis.com/css?family=Roboto:100,100italic,300,300italic,400,400italic,500,500italic,700,700italic,900,900italic);</style>
 </defs>
 <g transform="matrix(.81356 0 0 .81356 6.952 5.7203)">
  <g transform="matrix(2.1556 0 0 2.1556 102.43 -25.855)">
   <path stroke-linejoin="bevel" d="m-46.875 21.563 9.375-9.375c4.6875 4.6875 4.6875 14.063 0 18.75z" fill-rule="evenodd" stroke="#000" stroke-linecap="round" stroke-width=".43492" fill="#fff"/>
   <g opacity=".5" clip-path="url(#clipPath5625-3)" transform="matrix(.059055 0 0 .058993 -59.866 -47.685)" filter="url(#filter4753-6)">
    <g transform="matrix(.41676 0 0 .41676 93.94 876.37)">
     <path d="m428.92 238.48c-1.6407 0.001-3.2843 0.0133-4.9297 0.0352-210.6 2.8-379.07 175.78-376.29 386.39 2.771 210.6 175.73 379.09 386.34 376.39 210.61-2.79 379.12-175.73 376.4-386.34l-0.004-0.20703c-2.81-208.95-173.15-376.4-381.52-376.27z" fill-opacity=".99394" fill="#41b2ff"/>
     <path d="m428.92 238.48c-1.6407 0.001-3.2843 0.0133-4.9297 0.0352-52.47 0.69805-102.32 11.962-147.56 31.736 102.07 17.607 269.42 73.738 305.92 252.73l248.09 146.92c2.06-16.88-19.77-37.46-21.29-150.78s-171.86-280.77-380.23-280.64z" fill-rule="evenodd" fill="#5096c8"/>
     <path d="m585.17 524.91c-137.75 213.93-299.24 272.77-491.82 276.13 65.31 120.8 193.85 202.16 340.69 200.26 173.53-2.31 318.47-120.12 362.61-279.33-2.6864-6.5776-6.2011-13.62-10.816-21.135-17.14-23.8-76.73-132.36-200.66-175.93z" fill-rule="evenodd" fill="#ffd086"/>
     <g fill-rule="evenodd" fill-opacity=".99394">
      <path d="m586.25 524.12c-21.572 126.34-108.28 230.36-87.67 311.49 26.064 102.6-79.126 125.91-164.61 153.74 31.951 8.2031 65.502 12.365 100.07 11.914 200.01-2.6066 384.99-155.79 398.45-351.88-16.363-4.6623-55.068-14.685-65.771-26.628-32.688-36.474-116.61-76.182-180.47-98.631z" fill="#270b0b"/>
      <path d="m585 531.33c-26.422 62.173-14.831 66.986-37.916 116.64-14.171 30.482-17.333 46.717-38.172 103.35l307.77 38.693c15.598-29.077 2.0381-33.574 10.085-64.455-64.19-64.91-133.92-153.59-241.76-194.23z" fill="#cd8a03"/>
      <path d="m555.26 629-10.446 16.981c-2.5036 15.42-19.929 49.427-41.295 110.74-29.118 83.568 66.829 38.283 73.68 41.383 64.612 29.235 203.73 31.665 250.42 17.205 16.454-27.57-1.3041-50.706 7.8159-82.173-281.04-47.382-16.219-32.315-280.17-104.14z" fill="#402801"/>
      <path d="m504.68 865.61c-22.815 71.323-112.93 103.95-173.36 123.03 32.746 8.6608 67.195 13.076 102.72 12.613 352.81 228.01 354.06-29.425 420.73-90.639-50.964-3.1682-270.61-15.047-350.09-45.003z" fill="#fbbc38"/>
      <path d="m497.02 776.21c-0.24187 19.109-15.693 67.678 4.8652 95.176 13.909 18.604 222.39 35.563 287.14 56.335 37.495-31.086 25.828-85.197 49.186-128.29-88.158 0.4392-246.98 12.284-341.19-23.221z" fill="#fcc24d"/>
     </g>
    </g>
   </g>
   <g stroke-width=".9375px" stroke-linecap="round">
    <path stroke-linejoin="bevel" d="m-46.875 21.562 9.375-9.375c4.6875 4.6875 4.6875 14.062 0 18.75z" stroke="#fc0" fill="none"/>
    <path stroke-linejoin="round" d="m-35.132 33.305-11.743-11.743 11.743-11.742" stroke="#1ce31c" fill="none"/>
    <path stroke-linejoin="round" d="m-34.688 16.875c-2.8125 1.875-2.8125 7.5 0 9.375 1.1556-3.6002 1.1556-5.7748 0-9.375z" fill-rule="evenodd" stroke="#000"/>
   </g>
  </g>
  <g stroke-linejoin="bevel" stroke-linecap="round" fill="#0e720e">
   <circle stroke-width="1.4499" cy="20.625" cx="1.3909" r="3.6246"/>
   <circle stroke-width=".9375" cy=".41652" cx="21.599" r="2.3438"/>
   <circle stroke-width=".9375" cy="40.833" cx="21.599" r="2.3438"/>
  </g>
  <g stroke="#1ce3e3" stroke-width=".9375px" fill="none">
   <path d="m23.866 26.461 6.2865-5.8356-6.2805-6.1534"/>
   <path d="m27.566 30.86 2.587-10.235-2.491-10.104"/>
   <path d="m30.153 20.625-7.4658-0.07049"/>
  </g>
  <circle stroke-linejoin="bevel" stroke-width=".9375" stroke-linecap="round" cy="20.625" cx="30.153" r="2.3438" fill="#999"/>
  <g stroke-linejoin="bevel" stroke-linecap="round" fill="#5abd17">
   <g stroke-width=".53677">
    <circle cy="10.154" cx="27.487" r="1.3419"/>
    <circle cy="30.86" cx="27.566" r="1.3419"/>
    <circle cy="26.461" cx="23.866" r="1.3419"/>
    <circle cy="20.555" cx="22.687" r="1.3419"/>
    <circle cy="14.472" cx="23.872" r="1.3419"/>
   </g>
   <circle stroke-width=".9375" cy="-4.6875" cx="26.703" r="2.3438"/>
   <circle stroke-width=".9375" cy="45.938" cx="26.703" r="2.3438"/>
  </g>
 </g>
</svg>
